"weight","name"
0,"wait for wattlog"
1,"brigthness set to 10"
1,"brightness idle 10"
1,"brigthness set to 70"
1,"brightness idle 70"
1,"brigthness set to 130"
1,"brightness idle 130"
1,"brigthness set to 190"
1,"brightness idle 190"
1,"brigthness set to 255"
1,"brightness idle 255"
1,"reset brightness to 120"
1,"tapping every 0.5s"
1,"tapping every 1s"
1,"tapping every 2s"
1,"tapping every 5s"
1,"tapping every 10s"
1,"swiping every 0.5s"
1,"swiping every 1s"
1,"swiping every 2s"
1,"swiping every 5s"
1,"swiping every 10s"
1,"cat /dev/urandom for 20s"
1,"start firefox and wait 7s"
1,"enter url for white_on_black"
1,"idle on white_on_black"
1,"enter url for black_on_white"
1,"idle on black_on_white"
1,"enter url for red"
1,"idle on red"
1,"enter url for blue"
1,"idle on blue"
1,"enter url for green"
1,"idle on green"
0,"reset settings & exit"
