name,weight
"Wait for wattlog",1
"Suite 26",1
"Suite 27",1
"Suite 28",1
"Suite 29",1
"Suite 30",1
"Suite 31",1
"Suite 32",1
"Suite 33",1
"Suite 34",1
"Suite 35",1
"Suite 36",1
"Suite 37",1
"Suite 38",1
"Suite 39",1
"Suite 40",1
"Suite 41",1
"Suite 42",1
"Suite 43",1
"Suite 44",1
"Suite 45",1
"Suite 46",1
"Suite 47",1
"Suite 48",1
"Suite 49",1
"Idle time",1
