<?xml version="1.0" encoding="UTF-8" standalone="no"?>
<!-- Created with Inkscape (http://www.inkscape.org/) -->

<svg
   xmlns:dc="http://purl.org/dc/elements/1.1/"
   xmlns:cc="http://creativecommons.org/ns#"
   xmlns:rdf="http://www.w3.org/1999/02/22-rdf-syntax-ns#"
   xmlns:svg="http://www.w3.org/2000/svg"
   xmlns="http://www.w3.org/2000/svg"
   xmlns:xlink="http://www.w3.org/1999/xlink"
   xmlns:sodipodi="http://sodipodi.sourceforge.net/DTD/sodipodi-0.dtd"
   xmlns:inkscape="http://www.inkscape.org/namespaces/inkscape"
   width="20"
   height="20"
   id="svg2"
   version="1.1"
   inkscape:version="0.48.4 r9939"
   sodipodi:docname="download.svg">
  <defs
     id="defs4">
    <linearGradient
       id="linearGradient3815">
      <stop
         style="stop-color:#b80093;stop-opacity:1;"
         offset="0"
         id="stop3817" />
      <stop
         style="stop-color:#c233ff;stop-opacity:1;"
         offset="1"
         id="stop3819" />
    </linearGradient>
    <linearGradient
       inkscape:collect="always"
       xlink:href="#linearGradient3815"
       id="linearGradient3821"
       x1="340.67554"
       y1="566.38214"
       x2="348.14542"
       y2="549.38391"
       gradientUnits="userSpaceOnUse" />
    <linearGradient
       inkscape:collect="always"
       xlink:href="#linearGradient3815"
       id="linearGradient3823"
       x1="-7.2121835"
       y1="-9.3593845"
       x2="7.7588696"
       y2="4.4797053"
       gradientUnits="userSpaceOnUse" />
    <linearGradient
       inkscape:collect="always"
       xlink:href="#linearGradient3815"
       id="linearGradient5303"
       gradientUnits="userSpaceOnUse"
       x1="-6.0310049"
       y1="-11.930257"
       x2="-0.055087633"
       y2="1.6683426" />
  </defs>
  <sodipodi:namedview
     id="base"
     pagecolor="#ffffff"
     bordercolor="#666666"
     borderopacity="1.0"
     inkscape:pageopacity="0.0"
     inkscape:pageshadow="2"
     inkscape:zoom="38.7"
     inkscape:cx="10"
     inkscape:cy="10"
     inkscape:document-units="px"
     inkscape:current-layer="layer1"
     showgrid="false"
     fit-margin-top="0"
     fit-margin-left="0"
     fit-margin-right="0"
     fit-margin-bottom="0"
     inkscape:window-width="1231"
     inkscape:window-height="1000"
     inkscape:window-x="49"
     inkscape:window-y="24"
     inkscape:window-maximized="1" />
  <metadata
     id="metadata7">
    <rdf:RDF>
      <cc:Work
         rdf:about="">
        <dc:format>image/svg+xml</dc:format>
        <dc:type
           rdf:resource="http://purl.org/dc/dcmitype/StillImage" />
        <dc:title></dc:title>
      </cc:Work>
    </rdf:RDF>
  </metadata>
  <g
     inkscape:label="Layer 1"
     inkscape:groupmode="layer"
     id="layer1"
     transform="translate(-335.71429,-545.21933)">
    <g
       id="g640"
       transform="matrix(1.25,0,0,-1.25,348.21429,551.46933)"
       style="fill:url(#linearGradient3823);fill-opacity:1">
      <path
         inkscape:connector-curvature="0"
         d="m 0,0 -3.999,0 0,-3.001 L -6,-3 l 4.001,-4.001 4,4 L 0.001,-3 0,0 z"
         style="fill:url(#linearGradient5303);fill-opacity:1;fill-rule:nonzero;stroke:none"
         id="path642" />
    </g>
    <path
       inkscape:connector-curvature="0"
       d="m 345.71429,562.71933 c -4.13625,0 -7.5,-3.36375 -7.5,-7.5 0,-4.13625 3.36375,-7.5 7.5,-7.5 4.13625,0 7.5,3.36375 7.5,7.5 0,4.13625 -3.36375,7.5 -7.5,7.5 m 0,-17.5 c -5.5225,0 -10,4.4775 -10,10 0,5.5225 4.4775,10 10,10 5.5225,0 10,-4.4775 10,-10 0,-5.5225 -4.4775,-10 -10,-10"
       style="fill:url(#linearGradient3821);fill-opacity:1;fill-rule:nonzero;stroke:none"
       id="path646" />
  </g>
</svg>
